<?xml version="1.0" encoding="UTF-8" standalone="no"?>
<svg
  data-name="Layer 1"
  id="Layer_1"
  inkscape:version="1.0 (6e3e5246a0, 2020-05-07)"
  sodipodi:docname="clubforce-logo-blue.svg"
  version="1.1"
  viewBox="0 0 203.83 126.07"
  xmlns="http://www.w3.org/2000/svg"
  xmlns:cc="http://creativecommons.org/ns#"
  xmlns:dc="http://purl.org/dc/elements/1.1/"
  xmlns:inkscape="http://www.inkscape.org/namespaces/inkscape"
  xmlns:rdf="http://www.w3.org/1999/02/22-rdf-syntax-ns#"
  xmlns:sodipodi="http://sodipodi.sourceforge.net/DTD/sodipodi-0.dtd">
  <metadata
    id="metadata110">
    <rdf:RDF>
      <cc:Work
        rdf:about="">
        <dc:format>image/svg+xml</dc:format>
        <dc:type
          rdf:resource="http://purl.org/dc/dcmitype/StillImage"/>
      </cc:Work>
    </rdf:RDF>
  </metadata>
  <sodipodi:namedview
    bordercolor="#666666"
    borderopacity="1"
    gridtolerance="10"
    guidetolerance="10"
    id="namedview108"
    inkscape:current-layer="Layer_1"
    inkscape:cx="71.512129"
    inkscape:cy="63.035"
    inkscape:pageopacity="0"
    inkscape:pageshadow="2"
    inkscape:window-height="1016"
    inkscape:window-maximized="1"
    inkscape:window-width="1848"
    inkscape:window-x="72"
    inkscape:window-y="27"
    inkscape:zoom="6.1178433"
    objecttolerance="10"
    pagecolor="#ffffff"
    showgrid="false"/>
  <defs
    id="defs81">
    <style
      id="style79">.cls-1 {
      fill: #0062af;
    }</style>
  </defs>
  <title
    id="title83">clubforce logo blue</title>
  <path
    class="cls-1"
    d="M20.47,114.77a15.6,15.6,0,0,1,11.47-4.53,15.9,15.9,0,0,1,10,3.28L38.16,118a9.51,9.51,0,0,0-5.75-1.77,9.19,9.19,0,0,0-7,2.82,9.56,9.56,0,0,0-2.69,6.85,9.75,9.75,0,0,0,2.64,6.87A8.64,8.64,0,0,0,32,135.58a9.84,9.84,0,0,0,6.78-2.43l4,4.48a15.72,15.72,0,0,1-10.8,3.88A15.6,15.6,0,0,1,20.47,137a15.8,15.8,0,0,1,0-22.21Z"
    id="path85"
    style="fill:#444b59;fill-opacity:1"
    transform="translate(-15.91 -15.43)"/>
  <path
    class="cls-1"
    d="M46.25,110.24h6.26V141H46.25Z"
    id="path87"
    style="fill:#444b59;fill-opacity:1"
    transform="translate(-15.91 -15.43)"/>
  <path
    class="cls-1"
    d="M57.65,117.63H64v12.15A7.57,7.57,0,0,0,64.9,134a3.72,3.72,0,0,0,3.32,1.38q5,0,5-6.36v-11.4h6.26V141H73.26v-3a8.36,8.36,0,0,1-7,3.5,9.33,9.33,0,0,1-3.55-.63,6.68,6.68,0,0,1-2.47-1.64,7.44,7.44,0,0,1-1.52-2.43,12.86,12.86,0,0,1-.83-2.84,19.75,19.75,0,0,1-.23-3.07Z"
    id="path89"
    style="fill:#444b59;fill-opacity:1"
    transform="translate(-15.91 -15.43)"/>
  <path
    class="cls-1"
    d="M85.14,110.24H91.4v10.47a7.81,7.81,0,0,1,6.68-3.55,9.76,9.76,0,0,1,7.8,3.5,14,14,0,0,1,0,17.3,9.73,9.73,0,0,1-7.8,3.5A7.83,7.83,0,0,1,91.4,138v3H85.14Zm7.8,23.46a5.12,5.12,0,0,0,4,1.69,5.28,5.28,0,0,0,4-1.69,7,7,0,0,0,0-8.78,5.31,5.31,0,0,0-4-1.69,5.15,5.15,0,0,0-4,1.69,7,7,0,0,0,0,8.78Z"
    id="path91"
    style="fill:#444b59;fill-opacity:1"
    transform="translate(-15.91 -15.43)"/>
  <path
    class="cls-1"
    d="M113.79,122.67h-3.65v-5h3.7V116a8.43,8.43,0,0,1,.54-3.13,6.23,6.23,0,0,1,1.32-2.22,7,7,0,0,1,1.83-1.36,8,8,0,0,1,1.94-.75,7.48,7.48,0,0,1,1.7-.2,13.22,13.22,0,0,1,3.7.46,6.25,6.25,0,0,1,2.14.94l.57.46-2.39,4.3a6.26,6.26,0,0,0-2.89-1c-1.47,0-2.2.92-2.2,2.76v1.31h5.79v5h-5.84V141h-6.26Z"
    id="path93"
    style="fill:#444b59;fill-opacity:1"
    transform="translate(-15.91 -15.43)"/>
  <path
    class="cls-1"
    d="M130.87,120.71a12.71,12.71,0,0,1,17.62,0,11.91,11.91,0,0,1,0,17.2,12.71,12.71,0,0,1-17.62,0,11.91,11.91,0,0,1,0-17.2Zm4.49,12.9a6.13,6.13,0,0,0,8.64,0,6,6,0,0,0,0-8.6,6.13,6.13,0,0,0-8.64,0,6,6,0,0,0,0,8.6Z"
    id="path95"
    style="fill:#444b59;fill-opacity:1"
    transform="translate(-15.91 -15.43)"/>
  <path
    class="cls-1"
    d="M156.6,117.63h6.27V122a7.29,7.29,0,0,1,2.66-3.32,9,9,0,0,1,5.47-1.49V124q-4.12,0-6.12,1.94t-2,6.1v9H156.6Z"
    id="path97"
    style="fill:#444b59;fill-opacity:1"
    transform="translate(-15.91 -15.43)"/>
  <path
    class="cls-1"
    d="M176.87,120.71a12.18,12.18,0,0,1,8.8-3.55A12.81,12.81,0,0,1,194,120l-3.84,4.53a6.42,6.42,0,0,0-4.35-1.31,6.17,6.17,0,0,0-4.46,1.74,5.76,5.76,0,0,0-1.8,4.34,5.85,5.85,0,0,0,1.78,4.32,6.35,6.35,0,0,0,4.67,1.76,7.44,7.44,0,0,0,5.05-1.59l3.41,4.81a14,14,0,0,1-8.79,2.85,12.19,12.19,0,0,1-8.83-3.55,11.95,11.95,0,0,1,0-17.2Z"
    id="path99"
    style="fill:#444b59;fill-opacity:1"
    transform="translate(-15.91 -15.43)"/>
  <path
    class="cls-1"
    d="M199.75,120.71a11.7,11.7,0,0,1,8.69-3.55,10.59,10.59,0,0,1,8,3.53,11.88,11.88,0,0,1,3.32,8.43l-.19,2.34H202.73q1.17,4.48,6.41,4.49a12.58,12.58,0,0,0,6.4-1.59l2.34,4.72a17.31,17.31,0,0,1-8.83,2.38,13.43,13.43,0,0,1-9.1-3.2,11.13,11.13,0,0,1-3.71-8.9A11.85,11.85,0,0,1,199.75,120.71Zm13.87,6.22a4.93,4.93,0,0,0-1.91-3.18,5.88,5.88,0,0,0-3.65-1.17,5.23,5.23,0,0,0-3.31,1.17,6.21,6.21,0,0,0-2.11,3.18Z"
    id="path101"
    style="fill:#444b59;fill-opacity:1"
    transform="translate(-15.91 -15.43)"/>
  <path
    class="cls-1"
    d="M148.85,21.05a4.21,4.21,0,0,0-8.42,0V54.68L121,39.42a4.22,4.22,0,0,0-5.21,6.63l21.83,17.14-19.9,14.27L100.65,65.23a4.21,4.21,0,1,0-4.91,6.85l19.52,14a4.28,4.28,0,0,0,2.46.79,4.23,4.23,0,0,0,2.45-.79l26.92-19.3.08-.06a4.27,4.27,0,0,0,.38-.36,2.57,2.57,0,0,0,.33-.33A.46.46,0,0,0,148,66a4.51,4.51,0,0,0,.35-.54,1.29,1.29,0,0,0,.09-.16,3.44,3.44,0,0,0,.32-.86,2.07,2.07,0,0,0,0-.22,4.06,4.06,0,0,0,.09-.7s0-.08,0-.12Z"
    id="path103"
    style="fill:#444b59;fill-opacity:1"
    transform="translate(-15.91 -15.43)"/>
  <path
    class="cls-1"
    d="M95,23.86h33a4.22,4.22,0,1,0,0-8.43H90.79a4.21,4.21,0,0,0-4.21,4.22V53.54a4.21,4.21,0,1,0,8.42,0Z"
    id="path105"
    style="fill:#444b59;fill-opacity:1"
    transform="translate(-15.91 -15.43)"/>
  <path
    d="m 73.632056,42.024991 c -0.972725,-0.299858 -1.99821,-1.195579 -2.473334,-2.160357 L 70.776576,39.088653 70.732129,21.530392 C 70.682229,1.8178359 70.625752,2.8289011 71.851013,1.4996496 72.208159,1.112192 72.863742,0.63886273 73.307864,0.44780671 l 0.807494,-0.34737459 19.661655,0.0428112 c 18.541417,0.040372 19.695257,0.0595407 20.251337,0.33643717 1.21698,0.60598321 2.15599,1.87301731 2.36726,3.19420951 0.25236,1.5782037 -0.73879,3.4251881 -2.23935,4.1729467 l -0.86351,0.4303044 H 96.161937 79.031119 V 23.472445 c 0,14.941939 -0.0056,15.210308 -0.336674,16.095146 -0.421666,1.127002 -1.489811,2.116797 -2.65908,2.464032 -0.991281,0.29438 -1.430781,0.293167 -2.403309,-0.0066 z"
    id="path112"
    style="fill:#444b59;stroke-width:0.163456;fill-opacity:1"/>
</svg>
